%!PS-Adobe-3.0 EPSF-3.0
%%Creator: GIMP PostScript file plugin V 1,17 by Peter Kirchgessner
%%Title: tux.eps
%%CreationDate: Sun Dec  9 21:52:54 2012
%%DocumentData: Clean7Bit
%%LanguageLevel: 2
%%Pages: 1
%%BoundingBox: 14 14 47 47
%%EndComments
%%BeginProlog
% Use own dictionary to avoid conflicts
10 dict begin
%%EndProlog
%%Page: 1 1
% Translate for offset
14.173228346456694 14.173228346456694 translate
% Translate to begin of first scanline
0 32 translate
32 -32 scale
% Image geometry
32 32 8
% Transformation matrix
[ 32 0 0 32 0 0 ]
% Strings to hold RGB-samples per scanline
/rstr 32 string def
/gstr 32 string def
/bstr 32 string def
{currentfile /ASCII85Decode filter /RunLengthDecode filter rstr readstring pop}
{currentfile /ASCII85Decode filter /RunLengthDecode filter gstr readstring pop}
{currentfile /ASCII85Decode filter /RunLengthDecode filter bstr readstring pop}
true 3
%%BeginData:         2189 ASCII Bytes
colorimage
oD\jlrrDWiJ,~>
oD\jlrrDWiJ,~>
oD\jlrrDWiJ,~>
o`+ghoDa=~>
o`+ghoDa=~>
o`+ghoDa=~>
p&Fjgo`'F~>
p&Fjgo`'F~>
p&Fjgo`'F~>
pAamfp&BO~>
pAamfp&BO~>
pAamfp&BO~>
pAY<s#QOi->o!>=pA]X~>
pAY<s#QOi->o!>=pA]X~>
pAY<s#QOi->o!>=pA]X~>
pAYC"o?dQWcLCl7p&BO~>
pAYC"o?dQWcLCl7p&BO~>
pAYC"o?dQWcLCl7p&BO~>
pAYFC7(303(T]7i!;?GC~>
pAYFC7(E<8(T]7i!;?GC~>
pAYFC7)/fH(T]7i!;?GC~>
pAYBuL#W.(@))aBp&BO~>
pAYBuJ[sXX9tgT-p&BO~>
pAYBuE[NRl%(6-9p&BO~>
pAYF;s8N&ts8NN.!;?GC~>
pAYF6d*U1ee(4s-!;?GC~>
pAYF&-S@#'/g^Z#!;?GC~>
pAY+1qu?WqpA]X~>
pAY.-gA]J#d,4g&pA]X~>
pAY-r0`E[-/3Et6!;?GC~>
pAY*mqu6^o!!)`mJ,~>
pAYF!s3K$:jo8-W!;?GC~>
pAYF!lR4,+MuQTR!;?GC~>
pAY+!r;Qfsli$nYs*t~>
pAY@(s82Hcs8M?`!;HMD~>
pAY@(s6e8%s8M?`!;HMD~>
p\t6o_YX9448o6Ts*t~>
p\t6o_YX9448o6Ts*t~>
p\t6o_YX9448o6Ts*t~>
q#:?p/c,JJrgs)hq#>j~>
q#:?p/c,JJrgs)hq#>j~>
q#:?p/c,JJrgs)hq#>j~>
q>^Hp!LE`\s8;rns*t~>
q>^Hp!LE`\s8;rns*t~>
q>^Hp!LE`\s8;rns*t~>
q#:?ppA"XfJGoQEs*t~>
q#:?ppA"XfJGoQEs*t~>
q#:?ppA"XfJGoQEs*t~>
q>UHqD>4&1r;?Wls*t~>
q>UHqD>4&1r;?Wls*t~>
q>UHqD>4&1r;?Wls*t~>
qZ$Qq!;#pa!$hFBqu;0~>
qZ$Qq!;#pa!$hFBqu;0~>
qZ$Qq!;#pa!$hFBqu;0~>
qYpQr*VKF47K!5`s*t~>
qYpQr*VKF47K!5`s*t~>
qYpQr*VKF47K!5`s*t~>
qYpQr<;$7k>l=["s*t~>
qYpQr<;$7k>l=["s*t~>
qYpQr<;$7k>l=["s*t~>
qu6]t.oc3A"CWPu"p"Q#J,~>
qu6]t,?FR=#6+X2,Tm9kqu;0~>
qu6]t#@$s&#6+X3,Tm9kqu;0~>
q>UMtmf)t\"EXVD5W&B<J,~>
qYpZQPOJMHrs&A\B)hot.Js-q~>
qYpXO3:m.Frs%k93<0%J"8i+K~>
q#:@lf(]1IL&_4RqtpDD~>
qu?]D!nfrlq>UZkcY`^_N6_>#J,~>
qu?[K!\b>>q>UZH-Pug`+YETkJ,~>
rr3#trr2p"rqlbop\t?'g&M'Ks*t~>
rr<#Frm:hpcN'm>rs&/BeWdAgd/3in~>
rr<!Mr\"4&!<B%ors$n!/g)Mo/c5Qu~>
p\t;f!5JI3!ri6!rVloto)/N<~>
rr;iB!eUKfr;Qitn^%0]!RSmbs*t~>
rr;gI!ZV3Tr;Qit].*\2!A,i"s*t~>
pAY/2h#76Srr8nmrrDrps*t~>
rr;iB!nq5@rVm!!s-M43d/_Jjs*t~>
rr;gI!\[!trVm!!s&q#O/c[L%s*t~>
rr2utqu6cts8W)trr_F>MZ3MQ!Vl`ps*t~>
rr2uFqp>Mmec5XJrr_F>ER=U1!R(QCs*t~>
rr2sMqCVh/rr2os"6VHV/c..$/-,\LJ,~>
p&>9CO.^YZ!!'h5rrE&ps*t~>
rr;c@#I0A`G!,g*Sc-q:d*qmlJ,~>
rr;aG#=t&OG!,g*,5j+p/M?r#J,~>
rr3,`r;ZfrrVll>qZ$W:rVllcqYu'~>
rr3,7cdU=hrQtV@qZ$VkrQtV_qYu'~>
rr3*M/M8Y-r@S'qqZ$U@r@S(#qYu'~>
r;R%=s4RGPrr;uur;QoLs8N&Rq>Ys~>
r;R%)s0C)#d*r!pr;Qo&dEp=Kq>Ys~>
r;R$9s!KEO/M@&'r;QmH/hJ\'q>Ys~>
p\t64q#:E=s-i`_J,~>
p\t5eq#:Dms*shDJ,~>
p\t4<q#:C@ru:b5J,~>
iW"E~>
iW"E~>
iW"E~>
%%EndData
showpage
%%Trailer
end
%%EOF
